…
``` r
# Manually add Zoró country data
cldf_practice_tupian[cldf_practice_tupian$Glottocode == "zoro1244",]$Country <-
        "Brazil"

# See results
cldf_practice_tupian
```

    ## # A tibble: 92 x 15
    ##    Glottocode    ID Language    Cognate_Set Form  Concept Concept_ID Source     
    ##    <chr>      <dbl> <chr>       <chr>       <chr> <chr>        <dbl> <chr>      
    ##  1 akun1241       1 Ak = Akunt… I-1         õn    I/ME          2301 Galucio et…
    ##  2 arua1261       2 Ar = Aruá   I-1         õõt   I/ME          2301 Galucio et…
    ##  3 awet1244       3 Aw = Awetí  I-2         ito   I/ME          2301 Galucio et…
    ##  4 gavi1246       4 Gv = Gavião I-1         õõt   I/ME          2301 Galucio et…
    ##  5 juru1256       5 Ju = Jurúna I-1         una   I/ME          2301 Galucio et…
    ##  6 karo1305       6 Ka = Káro   I-1         ʔõn   I/ME          2301 Galucio et…
    ##  7 kari1311       7 Kt = Karit… I-1         ĩn    I/ME          2301 Galucio et…
    ##  8 kuru1309       8 Ku = Kuruá… I-1         õn    I/ME          2301 Galucio et…
    ##  9 maku1278       9 Ma = Makur… I-1         õn    I/ME          2301 Galucio et…
    ## 10 saki1248      10 Me = Mekéns I-1         õn    I/ME          2301 Galucio et…
    ## # … with 82 more rows, and 7 more variables: Source_Page <dbl>, Comment <chr>,
    ## #   Latitude <dbl>, Longitude <dbl>, Macro_Region <chr>, Family <chr>,
    ## #   Country <chr>
…
